…
``` r
library(tidyr)
```

    ## Warning: package 'tidyr' was built under R version 4.0.5

``` r
library(ggplot2)
library(nycflights13)
flights
```

    ## # A tibble: 336,776 × 19
    ##     year month   day dep_time sched_dep_time dep_delay arr_time sched_arr_time
    ##    <int> <int> <int>    <int>          <int>     <dbl>    <int>          <int>
    ##  1  2013     1     1      517            515         2      830            819
    ##  2  2013     1     1      533            529         4      850            830
    ##  3  2013     1     1      542            540         2      923            850
    ##  4  2013     1     1      544            545        -1     1004           1022
    ##  5  2013     1     1      554            600        -6      812            837
    ##  6  2013     1     1      554            558        -4      740            728
    ##  7  2013     1     1      555            600        -5      913            854
    ##  8  2013     1     1      557            600        -3      709            723
    ##  9  2013     1     1      557            600        -3      838            846
    ## 10  2013     1     1      558            600        -2      753            745
    ## # … with 336,766 more rows, and 11 more variables: arr_delay <dbl>,
    ## #   carrier <chr>, flight <int>, tailnum <chr>, origin <chr>, dest <chr>,
    ## #   air_time <dbl>, distance <dbl>, hour <dbl>, minute <dbl>, time_hour <dttm>
…
``` r
t3 = flights %>% 
  mutate(time = dep_time) %>% 
  drop_na() %>% 
  separate(time, into = c("dep_hour", "dep_min"), sep = -2) %>% 
  filter(dep_hour == 4) %>% 
  group_by(tailnum) %>% 
  summarise(n = n()) %>% 
  arrange(desc(n))


print(t3)
```

    ## # A tibble: 96 × 2
    ##    tailnum     n
    ##    <chr>   <int>
    ##  1 N559UW     11
    ##  2 N566UW      9
    ##  3 N161UW      7
    ##  4 N181UW      7
    ##  5 N184US      7
    ##  6 N199UW      7
    ##  7 N536UW      7
    ##  8 N155UW      6
    ##  9 N167US      6
    ## 10 N170US      6
    ## # … with 86 more rows
…
